<?xml version="1.0" encoding="UTF-8" standalone="no"?>
<svg
   xmlns:dc="http://purl.org/dc/elements/1.1/"
   xmlns:cc="http://creativecommons.org/ns#"
   xmlns:rdf="http://www.w3.org/1999/02/22-rdf-syntax-ns#"
   xmlns:svg="http://www.w3.org/2000/svg"
   xmlns="http://www.w3.org/2000/svg"
   xmlns:sodipodi="http://sodipodi.sourceforge.net/DTD/sodipodi-0.dtd"
   xmlns:inkscape="http://www.inkscape.org/namespaces/inkscape"
   inkscape:version="1.0 (4035a4fb49, 2020-05-01)"
   height="100"
   width="100"
   sodipodi:docname="noun_No Image_340719.svg"
   id="svg18"
   xml:space="preserve"
   enable-background="new 0 0 100 100"
   viewBox="0 0 100 100"
   y="0px"
   x="0px"
   version="1.1"><metadata
     id="metadata24"><rdf:RDF><cc:Work
         rdf:about=""><dc:format>image/svg+xml</dc:format><dc:type
           rdf:resource="http://purl.org/dc/dcmitype/StillImage" /><dc:title></dc:title></cc:Work></rdf:RDF></metadata><defs
     id="defs22" /><sodipodi:namedview
     inkscape:current-layer="svg18"
     inkscape:window-maximized="0"
     inkscape:window-y="27"
     inkscape:window-x="0"
     inkscape:cy="50.581049"
     inkscape:cx="50"
     inkscape:zoom="6.712"
     showgrid="false"
     id="namedview20"
     inkscape:window-height="1018"
     inkscape:window-width="1770"
     inkscape:pageshadow="2"
     inkscape:pageopacity="0"
     guidetolerance="10"
     gridtolerance="10"
     objecttolerance="10"
     borderopacity="1"
     bordercolor="#666666"
     pagecolor="#ffffff" /><g
     id="g12"><g
       id="g10"><circle
         id="circle2"
         r="7.375"
         cy="44.25"
         cx="62.75" /><rect
         id="rect4"
         height="108.207"
         width="4.1630001"
         transform="matrix(0.7071,-0.7071,0.7071,0.7071,-20.7107,50)"
         y="-4.1030002"
         x="47.918999" /><path
         id="path6"
         d="m 28,17.5 h 44 c 5.79,0 10.5,4.71 10.5,10.5 V 55.278 L 69.357,64.293 83.726,78.662 C 84.85,76.694 85.5,74.424 85.5,72 V 28 C 85.5,20.556 79.444,14.5 72,14.5 H 28 c -2.423,0 -4.694,0.65 -6.662,1.773 l 2.224,2.224 C 24.912,17.864 26.413,17.5 28,17.5 Z" /><path
         id="path8"
         d="M 60.926,70.075 40,50 17.5,68.047 V 28 c 0,-1.587 0.364,-3.088 0.998,-4.438 L 16.274,21.338 C 15.15,23.306 14.5,25.577 14.5,28 v 44 c 0,7.444 6.056,13.5 13.5,13.5 h 44 c 2.424,0 4.694,-0.65 6.662,-1.773 L 63.349,68.413 Z" /></g></g></svg>
